Library\Bee\artifacts\mvdfrm\UnityEditor.TestRunner.ref.dll_193EC4CE382CBFB3.mvfrm
Library\Bee\artifacts\mvdfrm\UnityEditor.UI.ref.dll_4C98D3F7040CD4F5.mvfrm
Library\Bee\artifacts\mvdfrm\UnityEngine.TestRunner.ref.dll_E55D0F7C63F01D9E.mvfrm
Library\Bee\artifacts\mvdfrm\UnityEngine.UI.ref.dll_08FEAA520A2EFD60.mvfrm
Library\Bee\artifacts\mvdfrm\UnityEditor.Graphs.dll_D04BBA123A8DC1CE.mvfrm
Library\Bee\artifacts\mvdfrm\UnityEditor.CoreModule.dll_342C25A747F9D39C.mvfrm
Library\Bee\artifacts\mvdfrm\UnityEditor.DeviceSimulatorModule.dll_125352E7EE9A90E5.mvfrm
Library\Bee\artifacts\mvdfrm\UnityEditor.DiagnosticsModule.dll_E4620B249EB881F3.mvfrm
Library\Bee\artifacts\mvdfrm\UnityEditor.dll_FA83FE5601DC0339.mvfrm
Library\Bee\artifacts\mvdfrm\UnityEditor.EditorToolbarModule.dll_045C03D051201415.mvfrm
Library\Bee\artifacts\mvdfrm\UnityEditor.GraphViewModule.dll_A212473C5DA8656A.mvfrm
Library\Bee\artifacts\mvdfrm\UnityEditor.PresetsUIModule.dll_5D78801E6000BD6F.mvfrm
Library\Bee\artifacts\mvdfrm\UnityEditor.QuickSearchModule.dll_6F718C31F78F7E4C.mvfrm
Library\Bee\artifacts\mvdfrm\UnityEditor.SceneTemplateModule.dll_27FB748E500CBE4D.mvfrm
Library\Bee\artifacts\mvdfrm\UnityEditor.SceneViewModule.dll_E0C22A4452CB3278.mvfrm
Library\Bee\artifacts\mvdfrm\UnityEditor.TextCoreFontEngineModule.dll_44A8C18BA42AE59A.mvfrm
Library\Bee\artifacts\mvdfrm\UnityEditor.TextCoreTextEngineModule.dll_8C90F7FD33AE9EB8.mvfrm
Library\Bee\artifacts\mvdfrm\UnityEditor.UIBuilderModule.dll_F69AF458D060DE9E.mvfrm
Library\Bee\artifacts\mvdfrm\UnityEditor.UIElementsModule.dll_00C635DE8D95D558.mvfrm
Library\Bee\artifacts\mvdfrm\UnityEditor.UIElementsSamplesModule.dll_5784982AA422E995.mvfrm
Library\Bee\artifacts\mvdfrm\UnityEditor.UnityConnectModule.dll_E4B3459B0FEC5052.mvfrm
Library\Bee\artifacts\mvdfrm\UnityEngine.AccessibilityModule.dll_5AA0E0255082E5EA.mvfrm
Library\Bee\artifacts\mvdfrm\UnityEngine.AIModule.dll_16E3D68F91234670.mvfrm
Library\Bee\artifacts\mvdfrm\UnityEngine.AndroidJNIModule.dll_7F0F1EB1D6B5442E.mvfrm
Library\Bee\artifacts\mvdfrm\UnityEngine.AnimationModule.dll_7097C36538053A10.mvfrm
Library\Bee\artifacts\mvdfrm\UnityEngine.ARModule.dll_D0569B92EE40A539.mvfrm
Library\Bee\artifacts\mvdfrm\UnityEngine.AssetBundleModule.dll_B35ABF2359F6333E.mvfrm
Library\Bee\artifacts\mvdfrm\UnityEngine.AudioModule.dll_BEEB118E71C99702.mvfrm
Library\Bee\artifacts\mvdfrm\UnityEngine.ClothModule.dll_25D36E894BE675E6.mvfrm
Library\Bee\artifacts\mvdfrm\UnityEngine.ClusterInputModule.dll_644FBAB0C1742318.mvfrm
Library\Bee\artifacts\mvdfrm\UnityEngine.ClusterRendererModule.dll_180015595E559E69.mvfrm
Library\Bee\artifacts\mvdfrm\UnityEngine.ContentLoadModule.dll_4C7118642878DB2B.mvfrm
Library\Bee\artifacts\mvdfrm\UnityEngine.CoreModule.dll_574CF8F9EFFF3EC7.mvfrm
Library\Bee\artifacts\mvdfrm\UnityEngine.CrashReportingModule.dll_0A81F1681C4354BF.mvfrm
Library\Bee\artifacts\mvdfrm\UnityEngine.DirectorModule.dll_5CE5ADFC632186A4.mvfrm
Library\Bee\artifacts\mvdfrm\UnityEngine.dll_2D28452E604F901E.mvfrm
Library\Bee\artifacts\mvdfrm\UnityEngine.DSPGraphModule.dll_62370F65D58257C5.mvfrm
Library\Bee\artifacts\mvdfrm\UnityEngine.GameCenterModule.dll_A95C68CC9CF6351F.mvfrm
Library\Bee\artifacts\mvdfrm\UnityEngine.GIModule.dll_AF201F9D2CD22E8A.mvfrm
Library\Bee\artifacts\mvdfrm\UnityEngine.GridModule.dll_34BE14E80853D4BE.mvfrm
Library\Bee\artifacts\mvdfrm\UnityEngine.HotReloadModule.dll_F1E0816B13385592.mvfrm
Library\Bee\artifacts\mvdfrm\UnityEngine.ImageConversionModule.dll_83F21309E07A565D.mvfrm
Library\Bee\artifacts\mvdfrm\UnityEngine.IMGUIModule.dll_F74AB0F537FB2AE3.mvfrm
Library\Bee\artifacts\mvdfrm\UnityEngine.InputLegacyModule.dll_449FDA41F1E7E92F.mvfrm
Library\Bee\artifacts\mvdfrm\UnityEngine.InputModule.dll_2560D93EE801BBA6.mvfrm
Library\Bee\artifacts\mvdfrm\UnityEngine.JSONSerializeModule.dll_BAB869614FBE4674.mvfrm
Library\Bee\artifacts\mvdfrm\UnityEngine.LocalizationModule.dll_A29C850358F01611.mvfrm
Library\Bee\artifacts\mvdfrm\UnityEngine.NVIDIAModule.dll_E89C4B7D01302213.mvfrm
Library\Bee\artifacts\mvdfrm\UnityEngine.ParticleSystemModule.dll_5D943AB48A54E04D.mvfrm
Library\Bee\artifacts\mvdfrm\UnityEngine.PerformanceReportingModule.dll_EBBEEAFBBCE95A86.mvfrm
Library\Bee\artifacts\mvdfrm\UnityEngine.Physics2DModule.dll_BD3DB355D90231A5.mvfrm
Library\Bee\artifacts\mvdfrm\UnityEngine.PhysicsModule.dll_058C029843ED1613.mvfrm
Library\Bee\artifacts\mvdfrm\UnityEngine.ProfilerModule.dll_8F2BE732FC7B0DB1.mvfrm
Library\Bee\artifacts\mvdfrm\UnityEngine.PropertiesModule.dll_D697A80B0FE1995B.mvfrm
Library\Bee\artifacts\mvdfrm\UnityEngine.RuntimeInitializeOnLoadManagerInitializerModule.dll_4518FB03B33E6C6E.mvfrm
Library\Bee\artifacts\mvdfrm\UnityEngine.ScreenCaptureModule.dll_D4A016E6642A72D6.mvfrm
Library\Bee\artifacts\mvdfrm\UnityEngine.SharedInternalsModule.dll_080351DF57A851AD.mvfrm
Library\Bee\artifacts\mvdfrm\UnityEngine.SpriteMaskModule.dll_9288DB5CBE65CA99.mvfrm
Library\Bee\artifacts\mvdfrm\UnityEngine.SpriteShapeModule.dll_CCBBEC7E0F986B48.mvfrm
Library\Bee\artifacts\mvdfrm\UnityEngine.StreamingModule.dll_252CB0B5878CF14E.mvfrm
Library\Bee\artifacts\mvdfrm\UnityEngine.SubstanceModule.dll_01D7C4FED2DFEF5C.mvfrm
Library\Bee\artifacts\mvdfrm\UnityEngine.SubsystemsModule.dll_FD3641BE8CADB2AC.mvfrm
Library\Bee\artifacts\mvdfrm\UnityEngine.TerrainModule.dll_1FD27E0719AB5F01.mvfrm
Library\Bee\artifacts\mvdfrm\UnityEngine.TerrainPhysicsModule.dll_5E0EE387A397DADA.mvfrm
Library\Bee\artifacts\mvdfrm\UnityEngine.TextCoreFontEngineModule.dll_C3083CDEB728A465.mvfrm
Library\Bee\artifacts\mvdfrm\UnityEngine.TextCoreTextEngineModule.dll_0AF0735046AC5D83.mvfrm
Library\Bee\artifacts\mvdfrm\UnityEngine.TextRenderingModule.dll_FDDF88F11B61F2CB.mvfrm
Library\Bee\artifacts\mvdfrm\UnityEngine.TilemapModule.dll_BECEE5883168400A.mvfrm
Library\Bee\artifacts\mvdfrm\UnityEngine.TLSModule.dll_451C96196C632A27.mvfrm
Library\Bee\artifacts\mvdfrm\UnityEngine.UIElementsModule.dll_0174A3268FD9EEA3.mvfrm
Library\Bee\artifacts\mvdfrm\UnityEngine.UIModule.dll_125774BCED6A4C1C.mvfrm
Library\Bee\artifacts\mvdfrm\UnityEngine.UmbraModule.dll_39BFBDA6FEF04275.mvfrm
Library\Bee\artifacts\mvdfrm\UnityEngine.UnityAnalyticsCommonModule.dll_86FDA83FD6D1F8E4.mvfrm
Library\Bee\artifacts\mvdfrm\UnityEngine.UnityAnalyticsModule.dll_7D33AB7E367C3249.mvfrm
Library\Bee\artifacts\mvdfrm\UnityEngine.UnityConnectModule.dll_D212C9AA0A7450FD.mvfrm
Library\Bee\artifacts\mvdfrm\UnityEngine.UnityCurlModule.dll_A3B46496A8192BFD.mvfrm
Library\Bee\artifacts\mvdfrm\UnityEngine.UnityTestProtocolModule.dll_13474E1CFE1E3EEB.mvfrm
Library\Bee\artifacts\mvdfrm\UnityEngine.UnityWebRequestAssetBundleModule.dll_2BD42C1FFEFF63DA.mvfrm
Library\Bee\artifacts\mvdfrm\UnityEngine.UnityWebRequestAudioModule.dll_63BB3EDA4354251E.mvfrm
Library\Bee\artifacts\mvdfrm\UnityEngine.UnityWebRequestModule.dll_95911AB3EB6EF0DC.mvfrm
Library\Bee\artifacts\mvdfrm\UnityEngine.UnityWebRequestTextureModule.dll_F981A3CC08D9AAB3.mvfrm
Library\Bee\artifacts\mvdfrm\UnityEngine.UnityWebRequestWWWModule.dll_D5B2B8AC366C19EF.mvfrm
Library\Bee\artifacts\mvdfrm\UnityEngine.VehiclesModule.dll_D4A8A77BDD4B563F.mvfrm
Library\Bee\artifacts\mvdfrm\UnityEngine.VFXModule.dll_C5FB2E8842D09394.mvfrm
Library\Bee\artifacts\mvdfrm\UnityEngine.VideoModule.dll_E3F495F9345BB2A7.mvfrm
Library\Bee\artifacts\mvdfrm\UnityEngine.VirtualTexturingModule.dll_ACC00C59B72946A5.mvfrm
Library\Bee\artifacts\mvdfrm\UnityEngine.VRModule.dll_65299B428F24D194.mvfrm
Library\Bee\artifacts\mvdfrm\UnityEngine.WindModule.dll_CD9BD4228135BD30.mvfrm
Library\Bee\artifacts\mvdfrm\UnityEngine.XRModule.dll_97E85E47185F1EF2.mvfrm
Library\Bee\artifacts\mvdfrm\Unity.Android.Gradle.dll_7A10837318D7EB84.mvfrm
Library\Bee\artifacts\mvdfrm\Unity.Android.GradleProject.dll_59094E8A11C24871.mvfrm
Library\Bee\artifacts\mvdfrm\Unity.Android.Types.dll_DE15979F49CB96F8.mvfrm
Library\Bee\artifacts\mvdfrm\UnityEditor.Android.Extensions.dll_23F5965C0485F244.mvfrm
Library\Bee\artifacts\mvdfrm\UnityEditor.WindowsStandalone.Extensions.dll_14C8446A373B93C4.mvfrm